{
  "VersionSet": {
      "BKBLUrl": "//tn99.sgxplay.com/BL/ExecuteAction",
      "WGUID": "AW75",
      "SignalRUrl": "//tn99.sgxplay.com",
      "ResourceURL": "//mtn99.sgxplay.com",
      "ResourceCDN": "//www.sgxplay.com",
      "WebVersionHost": "//tn99.sgxplay.com",
      "MobileVersionHost": "//mtn99.sgxplay.com"
  },
  "ThemeName": "M-010",
  "Environment": "1",
  "Lang": "3",
  "VersionNumber": "202004141831"
}