{
  "VersionSet": {
      "BKBLUrl": "//vvn.sgxplay.com/BL/ExecuteAction",
      "WGUID": "AWXW",
      "SignalRUrl": "//vvn.sgxplay.com",
      "ResourceURL": "//mvvn.sgxplay.com",
      "ResourceCDN": "//vvn.sgxplay.com",
      "WebVersionHost": "//vvn.sgxplay.com",
      "MobileVersionHost": "//mvvn.sgxplay.com"
  },
  "ThemeName": "M-005",
  "Environment": "1",
  "Lang": "3",
  "VersionNumber": "202004141840"
}